{
  "id": "c06b556.f3f94a8",
  "type": "subflow",
  "name": "Insert Tips",
  "info": "",
  "in": [
    {
      "x": 40.964303970336914,
      "y": 128.82143020629883,
      "wires": [
        {
          "id": "b297b187.4d685"
        }
      ]
    }
  ],
  "out": [
    {
      "x": 820.65478515625,
      "y": 91.08333587646484,
      "wires": [
        {
          "id": "9a8d5339.6572b",
          "port": 0
        },
        {
          "id": "7240d005.8dbf3",
          "port": 1
        }
      ]
    },
    {
      "x": 867.1785888671875,
      "y": 167,
      "wires": [
        {
          "id": "9a8d5339.6572b",
          "port": 1
        }
      ]
    },
    {
      "x": 323.7500057220459,
      "y": 199.75000381469727,
      "wires": [
        {
          "id": "b297b187.4d685",
          "port": 1
        }
      ]
    }
  ],
  "flow": [
    {
      "id": "223ff882.ddc008",
      "type": "sqlarray",
      "z": "c06b556.f3f94a8",
      "columns": "[\"venue\",\"network\",\"user_id\",\"user_name\",\"image\",\"content\",\"created_at\"]"
    },
    {
      "id": "b297b187.4d685",
      "type": "function",
      "z": "c06b556.f3f94a8",
      "name": "Prepare Payload",
      "func": "if (msg.payload.meta && msg.payload.meta.code === 200 && msg.payload.response.tips) {\n    var response = msg.payload.response.tips;\n    if (!msg.offset) {\n        msg.offset = 0;\n    }\n    msg.totalTips = response.count;\n    msg.nextOffset = response.items.length+msg.offset;\n    msg.nextTips = response.count-msg.nextOffset;\n    node.log('Wait '+response.items.length+' tips')\n    msg.payload = response.items;\n    return [msg,null];\n}\nreturn [null,msg];\n\n\n\n",
      "outputs": "2",
      "noerr": 0,
      "x": 172.42859268188477,
      "y": 129.00000095367432,
      "wires": [
        [
          "2d4ef2dc.d2b10e"
        ],
        []
      ]
    },
    {
      "id": "9a8d5339.6572b",
      "type": "function",
      "z": "c06b556.f3f94a8",
      "name": "Check if load next chunk",
      "func": "node.log('Next tips : '+msg.nextTips);\nif (msg.nextTips < 1) {\n    return [msg,null];\n} else {\n    msg.offset = msg.nextOffset;\n    msg.payload = {\n        id : msg.info.id\n    }\n    msg.foursquareArgs = {\n        offset : msg.nextOffset\n    };\n    return [null,msg];\n}\nreturn msg;",
      "outputs": "2",
      "noerr": 0,
      "x": 693.1785888671875,
      "y": 161,
      "wires": [
        [],
        []
      ]
    },
    {
      "id": "2d4ef2dc.d2b10e",
      "type": "Serial Iterator",
      "z": "c06b556.f3f94a8",
      "name": "",
      "property": "payload",
      "inputFlow": "input",
      "saveOutput": false,
      "recursive": false,
      "x": 427,
      "y": 154,
      "wires": [
        [
          "7240d005.8dbf3"
        ],
        [
          "9a8d5339.6572b"
        ]
      ]
    },
    {
      "id": "507247fe.af8db8",
      "type": "SQL Insert",
      "z": "c06b556.f3f94a8",
      "sqldb": "dbcf12ea.2430f",
      "name": "",
      "table": "reviews",
      "columns": "223ff882.ddc008",
      "requireAll": 1,
      "x": 563.666633605957,
      "y": 25.91666030883789,
      "wires": [
        [
          "2d4ef2dc.d2b10e"
        ]
      ]
    },
    {
      "id": "7240d005.8dbf3",
      "type": "function",
      "z": "c06b556.f3f94a8",
      "name": "Check tip date",
      "func": "if (msg.payload.createdAt > msg.lastTip) {\n    msg.payload = {\n        venue : msg.info.venue,\n        network : 'foursquare',\n        user_id : msg.payload.user.id,\n        user_name : msg.payload.user.firstName+(msg.payload.user.lastName?' '+msg.payload.user.lastName:''),\n        image : msg.payload.user.photo.prefix+'100x100'+msg.payload.user.photo.suffix,\n        content : msg.payload.text,\n        created_at : (new Date(msg.payload.createdAt*1000)).toJSON()\n    }\n    node.log('Inserting tip')\n    return [msg,null];\n}\nreturn [null,msg];",
      "outputs": "2",
      "noerr": 0,
      "x": 364.66662788391113,
      "y": 31.66666030883789,
      "wires": [
        [
          "507247fe.af8db8"
        ],
        []
      ]
    }
  ]
}