{
  "id": "de500688.21aff8",
  "type": "subflow",
  "name": "Insert/Update Rating if different",
  "info": "",
  "in": [
    {
      "x": 101,
      "y": 119,
      "wires": [
        {
          "id": "594032b0.a6bfcc"
        }
      ]
    }
  ],
  "out": [
    {
      "x": 1191.3333940505981,
      "y": 43,
      "wires": [
        {
          "id": "8a49f13a.75b61",
          "port": 0
        },
        {
          "id": "a5f0a8a8.5a0f58",
          "port": 0
        },
        {
          "id": "5bf962c9.a4069c",
          "port": 0
        },
        {
          "id": "594032b0.a6bfcc",
          "port": 0
        }
      ]
    }
  ],
  "flow": [
    {
      "id": "1a15f6bd.e5ea09",
      "type": "sqlarray",
      "z": "de500688.21aff8",
      "columns": "[\"date\",\"venue\",\"network\"]"
    },
    {
      "id": "586336b5.a79cc8",
      "type": "sqlarray",
      "z": "de500688.21aff8",
      "columns": "[\"rating\"]"
    },
    {
      "id": "bc84f279.437b1",
      "type": "sqlarray",
      "z": "de500688.21aff8",
      "columns": "[\"date\"]"
    },
    {
      "id": "bd0dd76c.42f228",
      "type": "sqlarray",
      "z": "de500688.21aff8",
      "columns": "[]"
    },
    {
      "id": "6641189c.99bee8",
      "type": "sqlarray",
      "z": "de500688.21aff8",
      "columns": "[\"venue\",\"network\"]"
    },
    {
      "id": "7dec4770.8213b8",
      "type": "sqlarray",
      "z": "de500688.21aff8",
      "columns": "[\"date\",\"rating\",\"venue\",\"network\"]"
    },
    {
      "id": "fd0663f0.02f9a",
      "type": "SQL Select",
      "z": "de500688.21aff8",
      "sqldb": "bc0da4a3.43f258",
      "name": "",
      "table": "review_avgs",
      "limit": "1",
      "offset": "0",
      "columns": "7dec4770.8213b8",
      "where": "6641189c.99bee8",
      "group": "bd0dd76c.42f228",
      "order": "bc84f279.437b1",
      "orderdir": "DESC",
      "requireAll": 1,
      "noWhere": 0,
      "x": 587.0000076293945,
      "y": 138.3333387374878,
      "wires": [
        [
          "8a49f13a.75b61"
        ]
      ]
    },
    {
      "id": "594032b0.a6bfcc",
      "type": "function",
      "z": "de500688.21aff8",
      "name": "Check response from foursquare",
      "func": "if (msg.payload.meta && msg.payload.meta.code === 200 && msg.payload.venue) {\n    msg.venueData = {\n        rating : msg.payload.venue.rating,\n        venue : msg.info.venue,\n        network : 'foursquare'\n    };\n    msg.payload = {\n        venue : msg.info.venue,\n        network : 'foursquare'\n    }\n    return [null,msg];\n    \n}\nreturn [msg,null];",
      "outputs": "2",
      "noerr": 0,
      "x": 317.5,
      "y": 118,
      "wires": [
        [],
        [
          "fd0663f0.02f9a"
        ]
      ]
    },
    {
      "id": "8a49f13a.75b61",
      "type": "function",
      "z": "de500688.21aff8",
      "name": "Check DB data",
      "func": "var today = (new Date()).toJSON().slice(0,10);\n//Check the results from the DB\nif (Array.isArray(msg.payload) && msg.payload.length) {\n    var lastRating = msg.payload[0];\n    //Check if the rating is changed\n    if (lastRating.rating !== msg.venueData.rating) {\n        //Check the date in the DB\n        var field_date = (new Date(lastRating.date)).toJSON().slice(0,10);\n        //If the record on the DB is from today update it with the new value\n        if (field_date === today) {\n            msg.payload = {\n                rating : msg.venueData.rating\n            };\n            msg.where = {\n                venue : msg.venueData.venue,\n                network : msg.venueData.network,\n                date : lastRating.date\n            };\n            return [null,msg,null];\n        }\n    } else {\n        //If the rating isn't changed, Do nothing\n        msg.payload = false;\n        return [msg,null,null];\n    }\n}\n//In case there's no data on the DB or the rating is changed but isn't of today, insert a new row in the DB\nmsg.payload = {\n    rating : msg.venueData.rating,\n    venue : msg.venueData.venue,\n    network : msg.venueData.network,\n    date : today\n};\nreturn [null,null,msg];\n",
      "outputs": "3",
      "noerr": 0,
      "x": 806.0000076293945,
      "y": 132.3333387374878,
      "wires": [
        [],
        [
          "a5f0a8a8.5a0f58"
        ],
        [
          "5bf962c9.a4069c"
        ]
      ]
    },
    {
      "id": "a5f0a8a8.5a0f58",
      "type": "SQL Update",
      "z": "de500688.21aff8",
      "sqldb": "bc0da4a3.43f258",
      "name": "",
      "table": "review_avgs",
      "columns": "586336b5.a79cc8",
      "where": "1a15f6bd.e5ea09",
      "requireAll": 1,
      "requireAllWhere": null,
      "x": 1038.0000076293945,
      "y": 145.3333387374878,
      "wires": [
        []
      ]
    },
    {
      "id": "5bf962c9.a4069c",
      "type": "SQL Insert",
      "z": "de500688.21aff8",
      "sqldb": "bc0da4a3.43f258",
      "name": "",
      "table": "review_avgs",
      "columns": "7dec4770.8213b8",
      "requireAll": 1,
      "x": 1032.0000076293945,
      "y": 184.3333387374878,
      "wires": [
        []
      ]
    }
  ]
}