{
  "type": "tab",
  "id": "fe7c07ea.0183f8",
  "label": "Sheet 1",
  "flow": [
    {
      "id": "f486f5b7.0b7908",
      "type": "sqlarray",
      "z": "fe7c07ea.0183f8",
      "columns": "[]"
    },
    {
      "id": "e48d785f.1b7288",
      "type": "inject",
      "z": "fe7c07ea.0183f8",
      "name": "Starter",
      "topic": "",
      "payload": "",
      "payloadType": "date",
      "repeat": "300",
      "crontab": "",
      "once": true,
      "x": 113,
      "y": 129,
      "wires": [
        [
          "a210001e.5df",
          "c5b331b2.3a4cd"
        ]
      ]
    },
    {
      "id": "a210001e.5df",
      "type": "SQL Select",
      "z": "fe7c07ea.0183f8",
      "sqldb": "dbcf12ea.2430f",
      "name": "",
      "table": "venues",
      "limit": "0",
      "offset": "0",
      "columns": "f486f5b7.0b7908",
      "where": "f486f5b7.0b7908",
      "group": "f486f5b7.0b7908",
      "order": "f486f5b7.0b7908",
      "orderdir": "ASC",
      "requireAll": 0,
      "noWhere": 1,
      "x": 299.50000762939453,
      "y": 163.28571224212646,
      "wires": [
        [
          "4420a104.bbdf6"
        ]
      ]
    },
    {
      "id": "4420a104.bbdf6",
      "type": "Parallel Iterator",
      "z": "fe7c07ea.0183f8",
      "name": "",
      "property": "payload",
      "saveOutput": false,
      "recursive": false,
      "x": 486.49999618530273,
      "y": 209.14281177520752,
      "wires": [
        [
          "d2842312.2d7be"
        ],
        [
          "baab14be.4554e8"
        ]
      ]
    },
    {
      "id": "8616b312.79e95",
      "type": "Combine End",
      "z": "fe7c07ea.0183f8",
      "name": "Combine Networks",
      "saveOutput": 0,
      "x": 746.5476760864258,
      "y": 455.6189184188843,
      "wires": [
        [
          "4420a104.bbdf6"
        ]
      ]
    },
    {
      "id": "d2842312.2d7be",
      "type": "Combine Start",
      "z": "fe7c07ea.0183f8",
      "name": "",
      "number": "2",
      "waitArray": 0,
      "x": 686.9286460876465,
      "y": 202.23798084259033,
      "wires": [
        [
          "999bc2b3.66644"
        ]
      ]
    },
    {
      "id": "37329596.c8cd6a",
      "type": "subflow:fa95c001.056a4",
      "z": "fe7c07ea.0183f8",
      "name": "",
      "x": 1083.9999389648438,
      "y": 181.14284706115723,
      "wires": [
        [
          "8616b312.79e95"
        ],
        [
          "8616b312.79e95"
        ]
      ]
    },
    {
      "id": "ebcb1888.1434e8",
      "type": "subflow:984c1082.67b3f",
      "z": "fe7c07ea.0183f8",
      "name": "",
      "x": 1082.7856903076172,
      "y": 225.42855072021484,
      "wires": [
        [
          "8616b312.79e95"
        ],
        [
          "8616b312.79e95"
        ]
      ]
    },
    {
      "id": "999bc2b3.66644",
      "type": "Input Split",
      "z": "fe7c07ea.0183f8",
      "name": "Split Networks",
      "inputProps": [
        "payload.tripadvisor",
        "payload.foursquare"
      ],
      "outputs": 2,
      "x": 875.5,
      "y": 202.28568601608276,
      "wires": [
        [
          "37329596.c8cd6a"
        ],
        [
          "ebcb1888.1434e8"
        ]
      ]
    },
    {
      "id": "baab14be.4554e8",
      "type": "template",
      "z": "fe7c07ea.0183f8",
      "name": "",
      "field": "payload",
      "format": "handlebars",
      "template": "Finished!",
      "x": 670,
      "y": 260,
      "wires": [
        [
          "5e859218.a17a6c"
        ]
      ]
    },
    {
      "id": "5e859218.a17a6c",
      "type": "debug",
      "z": "fe7c07ea.0183f8",
      "name": "",
      "active": true,
      "console": "false",
      "complete": "false",
      "x": 808.5,
      "y": 260,
      "wires": []
    },
    {
      "id": "c5b331b2.3a4cd",
      "type": "template",
      "z": "fe7c07ea.0183f8",
      "name": "",
      "field": "payload",
      "format": "handlebars",
      "template": "Started!",
      "x": 315,
      "y": 65,
      "wires": [
        [
          "761d62c2.89e29c"
        ]
      ]
    },
    {
      "id": "761d62c2.89e29c",
      "type": "debug",
      "z": "fe7c07ea.0183f8",
      "name": "",
      "active": true,
      "console": "false",
      "complete": "false",
      "x": 453.5,
      "y": 65,
      "wires": []
    }
  ]
}